<?php

include("../config_inc.php");

header ("Location: ../index.php");
exit;



print "<p>preg_match test...</p>\n";

$month = str_pad(date("m") - 1, 2, "0", STR_PAD_LEFT);
$lastmonth = date("Y") . "-" . $month . "-" . date("d");
print "lastmonth: $lastmonth<br />";

$today = date("Ymd");
print "today: $today<br />";


$sql = "INSERT INTO `Answers` VALUES (2405, 2, 2709, 4001, 'No''s', 43);";
$id_temp2 = "-q004-";
$question_id_array[4001] = $id_temp2;

$u = preg_match("#INSERT INTO `Answers` VALUES \(.*?,.*?,.*?, (.*?),.*?,.*?\)#msi",$sql,$array);
if ($u) {
    $key = $array[1];
    $id_temp = $question_id_array[$key];
    
    $sql = preg_replace("/, $key,/", ', ' . $id_temp . ',', $sql);
    
    print "<textarea cols='100' rows='20'>";
        print $sql;
    print "</textarea>";
}


#$theData = "INSERT INTO `Questions` VALUES (2708, 4, 43, '<p>I hope You are a great Nurse!</p>', 0, 0);
#    INSERT INTO `Answers` VALUES (2404, 1, 2708, -q002-, 'Continue on', 43);
#    INSERT INTO `Questions` VALUES (2709, 2, 43, '<p>Question number 2''s</p>', 0, 0);
#    INSERT INTO `Answers` VALUES (2405, 2, 2709, -q004-, 'No''s', 43);
#    INSERT INTO `Answers` VALUES (2406, 1, 2709, -q004-, 'Yes', 43);";

#$val = "-q004-";
#$key = "4001";

#$theData = str_replace($val,$key,$theData);

#$sql_array = explode("\n",$theData);
#print ("sql_array: $sql_array<br>\n");
#foreach ($sql_array as $sql) {
#        mysql_query($sql);
#        # Print out any error message that may appear.
#        print "sql: $sql\n";
#}

#print "<textarea cols='100' rows='20'>";
#    print $theData;
#print "</textarea>";


# Answers
#$area_id = 101;
#$question_id = 3001;
#$answer_id = 4001;

#$sql = "INSERT INTO `Answers` VALUES (-a001-, 1, -q001-, -q002-, 'Continue on', -i001-);";

#$u = preg_match("#INSERT INTO `Answers` VALUES \((.*?),.*?,(.*?),.*?,.*?,(.*?)\)#msi",$sql,$array);

#if ($u) {
#    $answer_id_orig = $array[1];
#    $question_id_orig = $array[2];
#    $area_id_orig = $array[3];
    
    # Now replace the origional $area_id...
#    $sql = preg_replace("/,$area_id_orig\)/", ', ' . $area_id . ')', $sql) . "\n";
    
    # Replace the origional $question_id
#    $sql = preg_replace("/,$question_id_orig,/", ', ' . $question_id . ',', $sql) . "\n";
    
    # Replace the origional $answer_id
#    $sql = preg_replace("/\($answer_id_orig,/", '(' . $answer_id . ',', $sql) . "\n";
    
#    print "Question sql: $sql\n";
#    print_r($question_id_array);
#}


# Expertise Area
#$area_id = 101;
#$sql = "INSERT INTO `ExpertiseArea` VALUES (-i001-, 'Test Interview 5', 'Rich McCue', NULL, 1,
#    '<p>Just testing the description.</p>', 'Florianopolis, Brazil', '1.2', '<p>No notes.</p>', 'English');-- EOQ --";

#$i = preg_match("#ExpertiseArea` VALUES \((.*?),#msi",$sql,$array);  
#if ($i){
#    $area_id_old = $array[1];
    # Now replace the origional $area_id.
#    $sql = preg_replace("/\($area_id_old,/", '(' . $area_id . ',', $sql);
#    print "$sql\n";
#}

# Questions
#$area_id = 101;
#$question_id = 3001;
#$sql ="INSERT INTO `Questions` VALUES (2708, 4, 41, '<p>I hope You are a great Nurse!</p>', 0, 0);";
#$sql = "INSERT INTO `Questions` VALUES (-q001-, 4, -i001-, '<p>I hope You are a great Nurse!</p>', 0, 0);";

#$e = preg_match("#INSERT INTO `Questions` VALUES \((.*?),.*?,(.*?),#msi",$sql,$array);

#$question_id_old = $array[1];
#$area_id_old = $array[2];

#print $array[1] . "<br>\n";
#print $array[2] . "<br>\n";

#if ($e) {
    # Replace the origional $question_id
#    $sql = preg_replace("/\($question_id_old,/", '(' . $question_id . ',', $sql) . "<br><br>\n";
    
    # Now replace the origional $area_id.
#    print preg_replace("/,$area_id_old,/", ', ' . $area_id . ',', $sql) . "<br><br>\n";
#}

?>
